<?xml version="1.0" encoding="utf-8"?>
<!-- Generator: Adobe Illustrator 19.2.1, SVG Export Plug-In . SVG Version: 6.00 Build 0)  -->
<svg version="1.1" id="Camada_1" xmlns="http://www.w3.org/2000/svg" xmlns:xlink="http://www.w3.org/1999/xlink" x="0px" y="0px"
	 viewBox="0 0 519.2 205.5" style="enable-background:new 0 0 519.2 205.5;" xml:space="preserve">
<style type="text/css">
	.st0{clip-path:url(#SVGID_2_);fill:#666769;}
	.st1{clip-path:url(#SVGID_4_);}
	.st2{clip-path:url(#SVGID_6_);fill:#666769;}
	.st3{clip-path:url(#SVGID_8_);fill:#67B145;}
	.st4{clip-path:url(#SVGID_10_);fill-rule:evenodd;clip-rule:evenodd;fill:#67B145;}
	.st5{clip-path:url(#SVGID_12_);fill:#666769;}
	.st6{clip-path:url(#SVGID_14_);}
	.st7{clip-path:url(#SVGID_16_);fill:#666769;}
	.st8{fill-rule:evenodd;clip-rule:evenodd;fill:#67B145;}
	.st9{clip-path:url(#SVGID_18_);fill-rule:evenodd;clip-rule:evenodd;fill:#67B145;}
	.st10{clip-path:url(#SVGID_20_);fill-rule:evenodd;clip-rule:evenodd;fill:#67B145;}
</style>
<g>
	<defs>
		<path id="SVGID_1_" d="M223.6,135.5c0.1,0.5,0,0.9-0.4,1.3c-0.4,0.4-0.9,0.6-1.4,0.6h-7.4c-0.9,0-1.5-0.6-1.8-1.8l-5.5-21.4
			c-0.3-1.2-0.9-1.9-1.8-1.9H196c-0.9,0-1.5,0.6-1.8,1.9l-5.5,21.4c0,1.2-0.6,1.8-1.9,1.8h-7.4c-1.2,0-1.9-0.6-1.9-1.8l5.5-21.4
			c0.7-2.8,1.7-5.2,3-7.2c-1.2-1.7-2.2-4.2-3-7.5l-5.5-21c-0.1-0.5,0-0.9,0.4-1.3c0.4-0.4,0.9-0.6,1.4-0.6h7.4
			c0.9,0,1.5,0.6,1.8,1.8l5.5,21c0.3,1.2,0.9,1.9,1.8,1.9h9.2c0.9,0,1.5-0.6,1.8-1.9l5.5-21c0-1.2,0.6-1.8,1.9-1.8h7.4
			c1.2,0,1.9,0.6,1.9,1.8l-5.5,21c-0.7,2.8-1.7,5.2-3,7.2c1.2,1.7,2.2,4.2,3,7.5L223.6,135.5z M175.4,135.5c0.1,0.5,0,0.9-0.4,1.3
			c-0.4,0.4-0.9,0.6-1.4,0.6h-7.4c-0.9,0-1.5-0.6-1.8-1.8l-5.5-21.4c-0.3-1.2-0.9-1.9-1.8-1.9h-9.3c-0.9,0-1.5,0.6-1.8,1.9
			l-5.5,21.4c0,1.2-0.6,1.8-1.9,1.8h-7.4c-1.2,0-1.9-0.6-1.9-1.8l5.5-21.4c0.7-2.8,1.7-5.2,3-7.2c-1.2-1.7-2.2-4.2-3-7.5l-5.5-21
			c-0.1-0.5,0-0.9,0.4-1.3c0.4-0.4,0.9-0.6,1.4-0.6h7.4c0.9,0,1.5,0.6,1.8,1.8l5.5,21c0.3,1.2,0.9,1.9,1.8,1.9h9.2
			c0.9,0,1.5-0.6,1.8-1.9l5.5-21c0-1.2,0.6-1.8,1.9-1.8h7.4c1.2,0,1.9,0.6,1.9,1.8l-5.5,21c-0.7,2.8-1.7,5.2-3,7.2
			c1.2,1.7,2.2,4.2,3,7.5L175.4,135.5z M110,124.5v-16.2c0-1.2-0.6-1.8-1.8-1.8H87.7c-1.2,0-1.8,0.6-1.8,1.8v16.2
			c0,1.2,0.6,1.8,1.8,1.8h20.4C109.3,126.3,110,125.7,110,124.5z M121,124.5c0,3.6-1.3,6.6-3.8,9.1c-2.5,2.5-5.5,3.8-9.1,3.8H87.7
			c-3.6,0-6.6-1.3-9.1-3.8c-2.5-2.5-3.8-5.5-3.8-9.1v-19.8c0-2.5,0.9-4.7,2.7-6.5c1.8-1.8,4-2.7,6.5-2.7h24.1c1.2,0,1.8-0.6,1.8-1.8
			v-4.2c0-1.2-0.6-1.8-1.8-1.8H76.7c-1.2,0-1.8-0.6-1.8-1.8v-7.3c0-1.2,0.6-1.8,1.8-1.8h31.4c3.6,0,6.6,1.3,9.1,3.8
			c2.5,2.5,3.8,5.5,3.8,9.1V124.5z M70.6,135.5c0,1.2-0.6,1.8-1.8,1.8h-7.3c-1.2,0-1.8-0.6-1.8-1.8l-5.5-46.1
			c-0.1-1.2-0.7-1.8-1.8-1.8h-9.4c-1.2,0-1.8,0.6-1.8,1.8v46.1c0,1.2-0.6,1.8-1.8,1.8h-7.3c-1.2,0-1.8-0.6-1.8-1.8V89.4
			c0-1.2-0.6-1.8-1.8-1.8h-9.4c-1.1,0-1.7,0.6-1.8,1.8l-5.5,46.1c0,1.2-0.6,1.8-1.8,1.8H2.3c-1.2,0-1.8-0.6-1.8-1.8L6,89.4
			c0.4-3.6,1.8-6.7,4.1-9.1c2.3-2.5,5.2-3.7,8.8-3.7h9.4c2.7,0,5.1,0.8,7.3,2.3c2.2-1.5,4.7-2.3,7.3-2.3h9.4c3.6,0,6.5,1.3,8.9,3.9
			c2.2,2.3,3.5,5.3,3.9,9L70.6,135.5z"/>
	</defs>
	<use xlink:href="#SVGID_1_"  style="overflow:visible;fill:#666769;"/>
	<clipPath id="SVGID_2_">
		<use xlink:href="#SVGID_1_"  style="overflow:visible;"/>
	</clipPath>
	<rect x="0.5" y="76.5" class="st0" width="223.3" height="60.8"/>
</g>
<g>
	<defs>
		<path id="SVGID_3_" d="M223.6,135.5c0.1,0.5,0,0.9-0.4,1.3c-0.4,0.4-0.9,0.6-1.4,0.6h-7.4c-0.9,0-1.5-0.6-1.8-1.8l-5.5-21.4
			c-0.3-1.2-0.9-1.9-1.8-1.9H196c-0.9,0-1.5,0.6-1.8,1.9l-5.5,21.4c0,1.2-0.6,1.8-1.9,1.8h-7.4c-1.2,0-1.9-0.6-1.9-1.8l5.5-21.4
			c0.7-2.8,1.7-5.2,3-7.2c-1.2-1.7-2.2-4.2-3-7.5l-5.5-21c-0.1-0.5,0-0.9,0.4-1.3c0.4-0.4,0.9-0.6,1.4-0.6h7.4
			c0.9,0,1.5,0.6,1.8,1.8l5.5,21c0.3,1.2,0.9,1.9,1.8,1.9h9.2c0.9,0,1.5-0.6,1.8-1.9l5.5-21c0-1.2,0.6-1.8,1.9-1.8h7.4
			c1.2,0,1.9,0.6,1.9,1.8l-5.5,21c-0.7,2.8-1.7,5.2-3,7.2c1.2,1.7,2.2,4.2,3,7.5L223.6,135.5z M175.4,135.5c0.1,0.5,0,0.9-0.4,1.3
			c-0.4,0.4-0.9,0.6-1.4,0.6h-7.4c-0.9,0-1.5-0.6-1.8-1.8l-5.5-21.4c-0.3-1.2-0.9-1.9-1.8-1.9h-9.3c-0.9,0-1.5,0.6-1.8,1.9
			l-5.5,21.4c0,1.2-0.6,1.8-1.9,1.8h-7.4c-1.2,0-1.9-0.6-1.9-1.8l5.5-21.4c0.7-2.8,1.7-5.2,3-7.2c-1.2-1.7-2.2-4.2-3-7.5l-5.5-21
			c-0.1-0.5,0-0.9,0.4-1.3c0.4-0.4,0.9-0.6,1.4-0.6h7.4c0.9,0,1.5,0.6,1.8,1.8l5.5,21c0.3,1.2,0.9,1.9,1.8,1.9h9.2
			c0.9,0,1.5-0.6,1.8-1.9l5.5-21c0-1.2,0.6-1.8,1.9-1.8h7.4c1.2,0,1.9,0.6,1.9,1.8l-5.5,21c-0.7,2.8-1.7,5.2-3,7.2
			c1.2,1.7,2.2,4.2,3,7.5L175.4,135.5z M110,124.5v-16.2c0-1.2-0.6-1.8-1.8-1.8H87.7c-1.2,0-1.8,0.6-1.8,1.8v16.2
			c0,1.2,0.6,1.8,1.8,1.8h20.4C109.3,126.3,110,125.7,110,124.5z M121,124.5c0,3.6-1.3,6.6-3.8,9.1c-2.5,2.5-5.5,3.8-9.1,3.8H87.7
			c-3.6,0-6.6-1.3-9.1-3.8c-2.5-2.5-3.8-5.5-3.8-9.1v-19.8c0-2.5,0.9-4.7,2.7-6.5c1.8-1.8,4-2.7,6.5-2.7h24.1c1.2,0,1.8-0.6,1.8-1.8
			v-4.2c0-1.2-0.6-1.8-1.8-1.8H76.7c-1.2,0-1.8-0.6-1.8-1.8v-7.3c0-1.2,0.6-1.8,1.8-1.8h31.4c3.6,0,6.6,1.3,9.1,3.8
			c2.5,2.5,3.8,5.5,3.8,9.1V124.5z M70.6,135.5c0,1.2-0.6,1.8-1.8,1.8h-7.3c-1.2,0-1.8-0.6-1.8-1.8l-5.5-46.1
			c-0.1-1.2-0.7-1.8-1.8-1.8h-9.4c-1.2,0-1.8,0.6-1.8,1.8v46.1c0,1.2-0.6,1.8-1.8,1.8h-7.3c-1.2,0-1.8-0.6-1.8-1.8V89.4
			c0-1.2-0.6-1.8-1.8-1.8h-9.4c-1.1,0-1.7,0.6-1.8,1.8l-5.5,46.1c0,1.2-0.6,1.8-1.8,1.8H2.3c-1.2,0-1.8-0.6-1.8-1.8L6,89.4
			c0.4-3.6,1.8-6.7,4.1-9.1c2.3-2.5,5.2-3.7,8.8-3.7h9.4c2.7,0,5.1,0.8,7.3,2.3c2.2-1.5,4.7-2.3,7.3-2.3h9.4c3.6,0,6.5,1.3,8.9,3.9
			c2.2,2.3,3.5,5.3,3.9,9L70.6,135.5z"/>
	</defs>
	<use xlink:href="#SVGID_3_"  style="overflow:visible;fill:#666769;"/>
	<clipPath id="SVGID_4_">
		<use xlink:href="#SVGID_3_"  style="overflow:visible;"/>
	</clipPath>
	<g class="st1">
		<defs>
			<rect id="SVGID_5_" x="-15.4" y="109.1" width="310.2" height="44.8"/>
		</defs>
		<use xlink:href="#SVGID_5_"  style="overflow:visible;fill-rule:evenodd;clip-rule:evenodd;fill:#666769;"/>
		<clipPath id="SVGID_6_">
			<use xlink:href="#SVGID_5_"  style="overflow:visible;"/>
		</clipPath>
		<rect x="-15.4" y="109.1" class="st2" width="310.2" height="44.8"/>
	</g>
</g>
<g>
	<defs>
		<path id="SVGID_7_" d="M391.4,125.2c0,3.6-1.3,6.6-3.8,9.1c-2.5,2.5-5.5,3.8-9.1,3.8h-20.4c-3.6,0-6.6-1.3-9.1-3.8
			c-2.5-2.5-3.8-5.5-3.8-9.1V79.1c0-1.2,0.6-1.8,1.8-1.8h7.3c1.2,0,1.8,0.6,1.8,1.8v9.2h33.2c1.2,0,1.8,0.6,1.8,1.8v7.3
			c0,1.2-0.6,1.8-1.8,1.8h-33.2v25.9c0,1.2,0.6,1.8,1.8,1.8h20.4c1.2,0,1.8-0.6,1.8-1.8v-12.3c0-1.2,0.6-1.8,1.8-1.8h7.3
			c1.2,0,1.8,0.6,1.8,1.8V125.2z M323.1,106.2V90.1c0-1.2-0.6-1.8-1.8-1.8h-20.4c-1.2,0-1.8,0.6-1.8,1.8v16.2c0,1.2,0.6,1.8,1.8,1.8
			h20.4C322.5,108.1,323.1,107.5,323.1,106.2z M334.2,136.2c0,1.2-0.6,1.8-1.8,1.8h-31.4c-3.6,0-6.6-1.3-9.1-3.8
			c-2.5-2.5-3.8-5.5-3.8-9.1V90.1c0-3.6,1.3-6.6,3.8-9.1c2.5-2.5,5.5-3.8,9.1-3.8h20.4c3.6,0,6.6,1.3,9.1,3.8
			c2.5,2.5,3.8,5.5,3.8,9.1v19.8c0,2.5-0.9,4.7-2.7,6.5c-1.8,1.8-4,2.7-6.5,2.7h-24.1c-1.2,0-1.8,0.6-1.8,1.8v4.2
			c0,1.2,0.6,1.8,1.8,1.8h31.4c1.2,0,1.8,0.6,1.8,1.8V136.2z M277.1,136.2c0,1.2-0.6,1.8-1.8,1.8H268c-1.2,0-1.8-0.6-1.8-1.8V93.8
			c0-1.2-0.6-1.8-1.8-1.8h-20.4c-1.2,0-1.8,0.6-1.8,1.8v42.4c0,1.2-0.6,1.8-1.8,1.8h-7.3c-1.2,0-1.8-0.6-1.8-1.8V79.1
			c0-1.2,0.6-1.8,1.8-1.8h7.3c0.8,0,1.4,0.6,1.8,1.8c0.4,1.2,1,1.8,1.8,1.8h20.4c3.5,0,6.6,1.3,9.1,3.8c2.5,2.5,3.8,5.5,3.8,9.1
			V136.2z"/>
	</defs>
	<use xlink:href="#SVGID_7_"  style="overflow:visible;fill:#67B145;"/>
	<clipPath id="SVGID_8_">
		<use xlink:href="#SVGID_7_"  style="overflow:visible;"/>
	</clipPath>
	<rect x="231" y="77.2" class="st3" width="160.3" height="60.8"/>
</g>
<g>
	<defs>
		<path id="SVGID_9_" d="M391.4,125.2c0,3.6-1.3,6.6-3.8,9.1c-2.5,2.5-5.5,3.8-9.1,3.8h-20.4c-3.6,0-6.6-1.3-9.1-3.8
			c-2.5-2.5-3.8-5.5-3.8-9.1V79.1c0-1.2,0.6-1.8,1.8-1.8h7.3c1.2,0,1.8,0.6,1.8,1.8v9.2h33.2c1.2,0,1.8,0.6,1.8,1.8v7.3
			c0,1.2-0.6,1.8-1.8,1.8h-33.2v25.9c0,1.2,0.6,1.8,1.8,1.8h20.4c1.2,0,1.8-0.6,1.8-1.8v-12.3c0-1.2,0.6-1.8,1.8-1.8h7.3
			c1.2,0,1.8,0.6,1.8,1.8V125.2z M323.1,106.2V90.1c0-1.2-0.6-1.8-1.8-1.8h-20.4c-1.2,0-1.8,0.6-1.8,1.8v16.2c0,1.2,0.6,1.8,1.8,1.8
			h20.4C322.5,108.1,323.1,107.5,323.1,106.2z M334.2,136.2c0,1.2-0.6,1.8-1.8,1.8h-31.4c-3.6,0-6.6-1.3-9.1-3.8
			c-2.5-2.5-3.8-5.5-3.8-9.1V90.1c0-3.6,1.3-6.6,3.8-9.1c2.5-2.5,5.5-3.8,9.1-3.8h20.4c3.6,0,6.6,1.3,9.1,3.8
			c2.5,2.5,3.8,5.5,3.8,9.1v19.8c0,2.5-0.9,4.7-2.7,6.5c-1.8,1.8-4,2.7-6.5,2.7h-24.1c-1.2,0-1.8,0.6-1.8,1.8v4.2
			c0,1.2,0.6,1.8,1.8,1.8h31.4c1.2,0,1.8,0.6,1.8,1.8V136.2z M277.1,136.2c0,1.2-0.6,1.8-1.8,1.8H268c-1.2,0-1.8-0.6-1.8-1.8V93.8
			c0-1.2-0.6-1.8-1.8-1.8h-20.4c-1.2,0-1.8,0.6-1.8,1.8v42.4c0,1.2-0.6,1.8-1.8,1.8h-7.3c-1.2,0-1.8-0.6-1.8-1.8V79.1
			c0-1.2,0.6-1.8,1.8-1.8h7.3c0.8,0,1.4,0.6,1.8,1.8c0.4,1.2,1,1.8,1.8,1.8h20.4c3.5,0,6.6,1.3,9.1,3.8c2.5,2.5,3.8,5.5,3.8,9.1
			V136.2z"/>
	</defs>
	<use xlink:href="#SVGID_9_"  style="overflow:visible;fill:#67B145;"/>
	<clipPath id="SVGID_10_">
		<use xlink:href="#SVGID_9_"  style="overflow:visible;"/>
	</clipPath>
	<rect x="182.8" y="109.9" class="st4" width="220.5" height="59.6"/>
</g>
<g>
	<defs>
		<path id="SVGID_11_" d="M349,204.7c0.3,0.2-0.1,0.7,1.7-0.2c0.5-0.3,1-0.4,1.6-0.6c3.2-1.1,6.8-2.4,9.8-3.8c2.2-1,4.4-1.3,6.5-2.4
			c1.6-0.9,4.6-2.3,6.3-2.7c2.1-0.5,4.1-1.9,6.1-2.8c1.2-0.5,2.2-0.7,3.4-1.2c2.2-0.9,3.8-2.1,6-3c1.2-0.5,2-0.5,3.2-1.2l2.9-1.6
			c1.2-0.6,1.4-0.9,3-1.4c1.7-0.5,1.6-0.8,3.1-1.5c2.1-1,2.5-1.5,4.8-2.2l4.3-2.3c1-0.7,2-1,3.1-1.5c0.8-0.3,1.9-1,2.8-1.5
			c1.2-0.6,1.6-1.2,2.9-1.7l3-1.4c1.2-0.7,1.8-0.9,2.9-1.7c1.2-0.8,1.8-0.7,3.1-1.3c0.4-0.2,0.8-0.6,1.4-1l4.1-2.4
			c1.8-0.7,1.5-0.5,3.1-1.5c1.1-0.6,1.8-1,2.7-1.7c1-0.7,2.2-0.8,3.1-1.4c0.9-0.7,1.7-1.1,2.7-1.7l3-1.5c1.2-0.6,1.8-1.3,2.7-1.8
			l5.8-3.2c0.9-0.7,1.5-1.2,2.8-1.8c1.5-0.7,1.6-0.8,2.8-1.6c0.5-0.3,0.9-0.6,1.5-0.9c0.6-0.4,0.8-0.6,1.2-0.9c1-0.7,2-0.6,3-1.4
			c1.2-1,4-2.8,5.5-3.4c1.4-0.6,1.6-1.2,2.8-1.9c1.7-1,4.1-2.1,5.6-3.3c1.1-0.9,1-1.1,2.7-1.7c1.4-0.5,2.8-1.8,4.1-2.7
			c0.6-0.4,0.7-0.6,1.2-0.9c1.1-0.7,1.9-0.7,3-1.6c3-2.4,4.9-3,7.9-5.6c0.9-0.8,1.9-0.8,2.9-1.7c1.6-1.4,3.5-2.5,5.3-3.7l2.4-1.9
			c1-0.8,1.7-0.8,2.7-1.9c0.5-0.6,1.1-1.8,1.7-2.6c1.4-1.8,1.1-5.3,0.1-7.3c-2.4-4.8-0.4-1.5-3.6-5.4c-1.3-1.6-3-2.9-4.4-4.5
			c-1.1-1.2-2.7-2-3.8-3.2c-1.1-1.2-2.7-1.8-3.9-2.9c-0.6-0.6-1.8-1.3-2.6-1.8c-3.1-2.1-3.2-0.2-5,1.8c-0.9,0.9-1.7,1.2-2.5,2.1
			c-0.8,0.8-1,1.6-1.9,2.4c-1.2,1.1-1.3,0.6-2.4,2.1c-0.7,1-1.2,1.4-2.3,2.1c-1.2,0.7-1.3,1.4-2.2,2.4c-0.5,0.5-0.7,0.7-1.2,1
			c-0.6,0.4-0.7,0.4-1.2,1c-1.6,2.1-9.3,8.9-11.7,10.8c-1.1,0.9-2.6,2.9-3.5,3.4c-1.6,1-2.3,2.2-3.4,3.1c-0.5,0.4-1,0.5-1.6,0.9
			c-1.5,1-1.8,2.2-3.4,3.1c-1.5,0.8-1.4,1.1-2.4,2.2c-0.9,0.9-1.3,1.2-2.4,1.9l-7.3,6.3c-0.5,0.6-0.4,0.7-1.1,1.1
			c-2.3,1.5-2,1.6-3.7,3.1c-1,0.9-1.6,0.7-2.6,1.8c-0.6,0.8-1.6,1.7-2.4,2.2c-1.6,0.9-1.2,1-2.4,1.9c-1.2,0.9-6.8,5.7-7.7,6.1
			c-1.1,0.6-1.7,1.2-2.4,2c-1.2,1.4-1.5,0.9-2.7,1.9c-0.8,0.6-1.3,1.3-2.3,2.1c-1.6,1.2-3.6,2.5-5.1,3.9c-0.6,0.6-0.5,0.7-1.3,1.1
			c-1.4,0.7-2.5,2.2-3.6,2.9c-1.3,0.9-1.7,0.6-2.8,1.8c-1.3,1.5-3.5,2.7-5.1,3.9l-2.4,2c-0.9,0.7-1.8,0.8-2.8,1.8
			c-0.9,0.8-1.3,1.3-2.4,2c-2.2,1.3-0.9,0.5-2.7,1.9c-1.7,1.3-4.9,3.3-5.4,3.7c-0.9,0.7-1.3,1.4-2.4,2c-1.7,0.8-1.4,0.8-2.7,1.8
			c-0.9,0.7-3,2.4-4,2.8c-1.6,0.7-2.4,1.9-3.8,2.8c-0.6,0.4-1.1,0.4-1.7,0.7l-3.8,2.7c-0.9,0.7-2,1.1-2.9,1.7
			c-0.9,0.6-1.3,1.1-2.5,1.9c-1,0.6-2,1-2.9,1.6c-2.5,1.7-3,2.2-5.6,3.3C350.7,203.4,350,204.2,349,204.7"/>
	</defs>
	<use xlink:href="#SVGID_11_"  style="overflow:visible;fill-rule:evenodd;clip-rule:evenodd;fill:#666769;"/>
	<clipPath id="SVGID_12_">
		<use xlink:href="#SVGID_11_"  style="overflow:visible;"/>
	</clipPath>
	<rect x="348.9" y="85.9" class="st5" width="170" height="119.6"/>
</g>
<g>
	<defs>
		<path id="SVGID_13_" d="M349,204.7c0.3,0.2-0.1,0.7,1.7-0.2c0.5-0.3,1-0.4,1.6-0.6c3.2-1.1,6.8-2.4,9.8-3.8c2.2-1,4.4-1.3,6.5-2.4
			c1.6-0.9,4.6-2.3,6.3-2.7c2.1-0.5,4.1-1.9,6.1-2.8c1.2-0.5,2.2-0.7,3.4-1.2c2.2-0.9,3.8-2.1,6-3c1.2-0.5,2-0.5,3.2-1.2l2.9-1.6
			c1.2-0.6,1.4-0.9,3-1.4c1.7-0.5,1.6-0.8,3.1-1.5c2.1-1,2.5-1.5,4.8-2.2l4.3-2.3c1-0.7,2-1,3.1-1.5c0.8-0.3,1.9-1,2.8-1.5
			c1.2-0.6,1.6-1.2,2.9-1.7l3-1.4c1.2-0.7,1.8-0.9,2.9-1.7c1.2-0.8,1.8-0.7,3.1-1.3c0.4-0.2,0.8-0.6,1.4-1l4.1-2.4
			c1.8-0.7,1.5-0.5,3.1-1.5c1.1-0.6,1.8-1,2.7-1.7c1-0.7,2.2-0.8,3.1-1.4c0.9-0.7,1.7-1.1,2.7-1.7l3-1.5c1.2-0.6,1.8-1.3,2.7-1.8
			l5.8-3.2c0.9-0.7,1.5-1.2,2.8-1.8c1.5-0.7,1.6-0.8,2.8-1.6c0.5-0.3,0.9-0.6,1.5-0.9c0.6-0.4,0.8-0.6,1.2-0.9c1-0.7,2-0.6,3-1.4
			c1.2-1,4-2.8,5.5-3.4c1.4-0.6,1.6-1.2,2.8-1.9c1.7-1,4.1-2.1,5.6-3.3c1.1-0.9,1-1.1,2.7-1.7c1.4-0.5,2.8-1.8,4.1-2.7
			c0.6-0.4,0.7-0.6,1.2-0.9c1.1-0.7,1.9-0.7,3-1.6c3-2.4,4.9-3,7.9-5.6c0.9-0.8,1.9-0.8,2.9-1.7c1.6-1.4,3.5-2.5,5.3-3.7l2.4-1.9
			c1-0.8,1.7-0.8,2.7-1.9c0.5-0.6,1.1-1.8,1.7-2.6c1.4-1.8,1.1-5.3,0.1-7.3c-2.4-4.8-0.4-1.5-3.6-5.4c-1.3-1.6-3-2.9-4.4-4.5
			c-1.1-1.2-2.7-2-3.8-3.2c-1.1-1.2-2.7-1.8-3.9-2.9c-0.6-0.6-1.8-1.3-2.6-1.8c-3.1-2.1-3.2-0.2-5,1.8c-0.9,0.9-1.7,1.2-2.5,2.1
			c-0.8,0.8-1,1.6-1.9,2.4c-1.2,1.1-1.3,0.6-2.4,2.1c-0.7,1-1.2,1.4-2.3,2.1c-1.2,0.7-1.3,1.4-2.2,2.4c-0.5,0.5-0.7,0.7-1.2,1
			c-0.6,0.4-0.7,0.4-1.2,1c-1.6,2.1-9.3,8.9-11.7,10.8c-1.1,0.9-2.6,2.9-3.5,3.4c-1.6,1-2.3,2.2-3.4,3.1c-0.5,0.4-1,0.5-1.6,0.9
			c-1.5,1-1.8,2.2-3.4,3.1c-1.5,0.8-1.4,1.1-2.4,2.2c-0.9,0.9-1.3,1.2-2.4,1.9l-7.3,6.3c-0.5,0.6-0.4,0.7-1.1,1.1
			c-2.3,1.5-2,1.6-3.7,3.1c-1,0.9-1.6,0.7-2.6,1.8c-0.6,0.8-1.6,1.7-2.4,2.2c-1.6,0.9-1.2,1-2.4,1.9c-1.2,0.9-6.8,5.7-7.7,6.1
			c-1.1,0.6-1.7,1.2-2.4,2c-1.2,1.4-1.5,0.9-2.7,1.9c-0.8,0.6-1.3,1.3-2.3,2.1c-1.6,1.2-3.6,2.5-5.1,3.9c-0.6,0.6-0.5,0.7-1.3,1.1
			c-1.4,0.7-2.5,2.2-3.6,2.9c-1.3,0.9-1.7,0.6-2.8,1.8c-1.3,1.5-3.5,2.7-5.1,3.9l-2.4,2c-0.9,0.7-1.8,0.8-2.8,1.8
			c-0.9,0.8-1.3,1.3-2.4,2c-2.2,1.3-0.9,0.5-2.7,1.9c-1.7,1.3-4.9,3.3-5.4,3.7c-0.9,0.7-1.3,1.4-2.4,2c-1.7,0.8-1.4,0.8-2.7,1.8
			c-0.9,0.7-3,2.4-4,2.8c-1.6,0.7-2.4,1.9-3.8,2.8c-0.6,0.4-1.1,0.4-1.7,0.7l-3.8,2.7c-0.9,0.7-2,1.1-2.9,1.7
			c-0.9,0.6-1.3,1.1-2.5,1.9c-1,0.6-2,1-2.9,1.6c-2.5,1.7-3,2.2-5.6,3.3C350.7,203.4,350,204.2,349,204.7"/>
	</defs>
	<use xlink:href="#SVGID_13_"  style="overflow:visible;fill-rule:evenodd;clip-rule:evenodd;fill:#666769;"/>
	<clipPath id="SVGID_14_">
		<use xlink:href="#SVGID_13_"  style="overflow:visible;"/>
	</clipPath>
	<g class="st6">
		<defs>
			<rect id="SVGID_15_" x="340.9" y="113.2" width="245.5" height="94.8"/>
		</defs>
		<use xlink:href="#SVGID_15_"  style="overflow:visible;fill-rule:evenodd;clip-rule:evenodd;fill:#666769;"/>
		<clipPath id="SVGID_16_">
			<use xlink:href="#SVGID_15_"  style="overflow:visible;"/>
		</clipPath>
		<rect x="340.9" y="113.2" class="st7" width="245.5" height="94.8"/>
	</g>
</g>
<path class="st8" d="M422,136.9c0,1.2-0.4,1-1.5,2.1c-1,1-3,4.3-3.7,5l-3.9,4.9c-0.6,0.7-0.3,0.4-0.9,0.9c-1.3,1-0.5,1.3-2.2,3
	c-2.9,2.8-1.5,2.2-3,4c-0.6,0.7-1.1,0.9-1.8,1.7c-1.3,1.5-0.4,1.4-1.9,2.5c-0.6,0.4-1.7,1.6-2.1,2.2c-0.3,0.4-0.2,0.6-0.7,1.1
	c-0.6,0.7-2.8,2.3-3.2,3.7c2.7-1.4,1.7-0.7,3.4-2.4c1-1,2.4-1.3,3.4-2.3c1.5-1.6,4.5-3.5,6.3-4.8c0.7-0.5,0.6-0.9,1.5-1.4
	c0.8-0.5,1.9-1.3,2.5-1.9c0.8-0.8,0.8-1.1,2.1-1.9c3.3-2-0.6,0.5,3.1-2.6l1.4-1c0,0,0.1-0.1,0.1-0.1c0,0,0.1-0.1,0.1-0.1l0.6-0.4
	c0.6-0.4,0.4-0.4,1.1-0.6l5.7-4.7c2.8-2.9,1.5-1.1,2.9-2.3c1-0.8,1.6-2,2.6-2.6c1.4-0.9,2.1-1.1,2.9-2.4c0.9-1.5,2-1.3,2.9-2.4
	c0.9-1.1,1.5-1.8,2.6-2.7c0.7-0.6,0.8-0.5,1.4-1.2l10.7-10.3c0.5-0.5,0.9-0.7,1.4-1.2l5.2-5.3c1.6-2.1,0.8-0.8,2.6-2.7
	c0.9-0.9,1.6-1.8,2.5-2.7c1.8-1.8,3.3-3.6,5-5.5c0.9-1,1.6-1.9,2.4-2.8l2.5-2.8c0.8-1.3,1.2-2,2.2-3c1.3-1.2,1.1-1.9,2-3.2
	c0.5-0.7,0.8-0.8,1.3-1.4c1.6-2,4.1-6.4,4.2-9c0.1-1.8,0.2-3.5-0.4-4.9c-1.6-3.8-2.5-5.1-5.4-7.7c-1.4-1.3-2.2-2.3-4.3-3.6
	c-3-1.8-4.2-3.7-6.7-3.9l-1.1,2.8c-0.5,1.1-0.9,1.4-1.4,2.5c-0.8,1.9-1.3,3.5-2.3,5.3c-1.3,2.3-1.6,2.3-2.7,5.2
	c-0.8,2.2-1.8,2.9-2.8,4.8c-0.5,1-0.7,1.7-1.3,2.7l-2.9,4.9c-0.7,1.7-1.8,3.3-2.8,4.9c-0.6,1-0.7,1.5-1.3,2.5
	c-1.3,2.3-1.3,1.2-3,4.6c-0.4,0.9-1,1.4-1.6,2.4c-0.5,0.9-1,1.5-1.6,2.3c-0.5,0.8-0.8,1.8-1.4,2.6c-0.6,0.9-1,1-1.7,2.1
	c-0.4,0.6-0.4,0.6-0.7,1.3c-0.6,1.5-3,4.1-3.9,5.8c-1.6,2.9-2.6,3.1-3.2,4.5c-0.7,1.6-0.5,1.2-1.6,2.3c-1.5,1.6-3.4,5.1-4.8,6.7
	c-1,1.1-0.8,0.5-1.6,2.1c-0.4,0.9-1,1.7-1.7,2.3C422.9,135.3,422,135.9,422,136.9"/>
<g>
	<defs>
		<path id="SVGID_17_" d="M422,136.9c0,1.2-0.4,1-1.5,2.1c-1,1-3,4.3-3.7,5l-3.9,4.9c-0.6,0.7-0.3,0.4-0.9,0.9c-1.3,1-0.5,1.3-2.2,3
			c-2.9,2.8-1.5,2.2-3,4c-0.6,0.7-1.1,0.9-1.8,1.7c-1.3,1.5-0.4,1.4-1.9,2.5c-0.6,0.4-1.7,1.6-2.1,2.2c-0.3,0.4-0.2,0.6-0.7,1.1
			c-0.6,0.7-2.8,2.3-3.2,3.7c2.7-1.4,1.7-0.7,3.4-2.4c1-1,2.4-1.3,3.4-2.3c1.5-1.6,4.5-3.5,6.3-4.8c0.7-0.5,0.6-0.9,1.5-1.4
			c0.8-0.5,1.9-1.3,2.5-1.9c0.8-0.8,0.8-1.1,2.1-1.9c3.3-2-0.6,0.5,3.1-2.6l1.4-1c0,0,0.1-0.1,0.1-0.1c0,0,0.1-0.1,0.1-0.1l0.6-0.4
			c0.6-0.4,0.4-0.4,1.1-0.6l5.7-4.7c2.8-2.9,1.5-1.1,2.9-2.3c1-0.8,1.6-2,2.6-2.6c1.4-0.9,2.1-1.1,2.9-2.4c0.9-1.5,2-1.3,2.9-2.4
			c0.9-1.1,1.5-1.8,2.6-2.7c0.7-0.6,0.8-0.5,1.4-1.2l10.7-10.3c0.5-0.5,0.9-0.7,1.4-1.2l5.2-5.3c1.6-2.1,0.8-0.8,2.6-2.7
			c0.9-0.9,1.6-1.8,2.5-2.7c1.8-1.8,3.3-3.6,5-5.5c0.9-1,1.6-1.9,2.4-2.8l2.5-2.8c0.8-1.3,1.2-2,2.2-3c1.3-1.2,1.1-1.9,2-3.2
			c0.5-0.7,0.8-0.8,1.3-1.4c1.6-2,4.1-6.4,4.2-9c0.1-1.8,0.2-3.5-0.4-4.9c-1.6-3.8-2.5-5.1-5.4-7.7c-1.4-1.3-2.2-2.3-4.3-3.6
			c-3-1.8-4.2-3.7-6.7-3.9l-1.1,2.8c-0.5,1.1-0.9,1.4-1.4,2.5c-0.8,1.9-1.3,3.5-2.3,5.3c-1.3,2.3-1.6,2.3-2.7,5.2
			c-0.8,2.2-1.8,2.9-2.8,4.8c-0.5,1-0.7,1.7-1.3,2.7l-2.9,4.9c-0.7,1.7-1.8,3.3-2.8,4.9c-0.6,1-0.7,1.5-1.3,2.5
			c-1.3,2.3-1.3,1.2-3,4.6c-0.4,0.9-1,1.4-1.6,2.4c-0.5,0.9-1,1.5-1.6,2.3c-0.5,0.8-0.8,1.8-1.4,2.6c-0.6,0.9-1,1-1.7,2.1
			c-0.4,0.6-0.4,0.6-0.7,1.3c-0.6,1.5-3,4.1-3.9,5.8c-1.6,2.9-2.6,3.1-3.2,4.5c-0.7,1.6-0.5,1.2-1.6,2.3c-1.5,1.6-3.4,5.1-4.8,6.7
			c-1,1.1-0.8,0.5-1.6,2.1c-0.4,0.9-1,1.7-1.7,2.3C422.9,135.3,422,135.9,422,136.9"/>
	</defs>
	<use xlink:href="#SVGID_17_"  style="overflow:visible;fill-rule:evenodd;clip-rule:evenodd;fill:#67B145;"/>
	<clipPath id="SVGID_18_">
		<use xlink:href="#SVGID_17_"  style="overflow:visible;"/>
	</clipPath>
	<rect x="369.6" y="112" class="st9" width="140" height="69.1"/>
</g>
<path class="st8" d="M413.8,139.1c1.6-0.6,1.1-1.7,2.3-3c1.5-1.6,2.9-3.7,4.2-5.7l2-2.8c0.7-1.2,1.1-2.1,1.9-3.1
	c1.1-1.3,1.1-1.1,1.9-3c0.2-0.5,3.7-5.2,3.9-5.9c0.3-0.6,0.3-1.3,0.7-1.9c0.5-0.9,2-2.6,2.8-4.4c0.6-1.5,0.8-2,1.7-3.3l4.9-9.8
	c0.5-1.1,0.9-2.4,1.4-3.6c0.5-1.3,1.1-2,1.5-3.3c0.9-2.5,4.5-13.5,4.7-14.9c1.1-8,2.9-18.4-2-25c-0.6-0.9-1.3-2.5-1.9-3.1
	c-0.8-0.7-1.6-1.6-2.3-2.5c-1-1.2-1.6-1.4-2.7-2.3c-4.3-3.9-1.1-1.3-4.1-3.1c-0.5-0.3-2.8-2.7-4.3-2.7c-0.3,7.1-0.4,14.3-1.2,21.3
	c-0.7,6.5-1.9,13.7-2.6,19.9c-0.7,6.8-0.3,5.7-1.8,13.1c-0.2,1.2-0.4,2.2-0.6,3.4c-0.2,0.9-0.3,2.2-0.6,3.2
	c-0.8,3.7-1.3,9.4-2.3,12.5c-1.2,4-2.6,13.3-3.3,15.3l-0.9,2.8c-0.6,2.3-1.1,3.2-1.6,5.8C415.1,135.4,413.9,137.1,413.8,139.1"/>
<g>
	<defs>
		<path id="SVGID_19_" d="M413.8,139.1c1.6-0.6,1.1-1.7,2.3-3c1.5-1.6,2.9-3.7,4.2-5.7l2-2.8c0.7-1.2,1.1-2.1,1.9-3.1
			c1.1-1.3,1.1-1.1,1.9-3c0.2-0.5,3.7-5.2,3.9-5.9c0.3-0.6,0.3-1.3,0.7-1.9c0.5-0.9,2-2.6,2.8-4.4c0.6-1.5,0.8-2,1.7-3.3l4.9-9.8
			c0.5-1.1,0.9-2.4,1.4-3.6c0.5-1.3,1.1-2,1.5-3.3c0.9-2.5,4.5-13.5,4.7-14.9c1.1-8,2.9-18.4-2-25c-0.6-0.9-1.3-2.5-1.9-3.1
			c-0.8-0.7-1.6-1.6-2.3-2.5c-1-1.2-1.6-1.4-2.7-2.3c-4.3-3.9-1.1-1.3-4.1-3.1c-0.5-0.3-2.8-2.7-4.3-2.7c-0.3,7.1-0.4,14.3-1.2,21.3
			c-0.7,6.5-1.9,13.7-2.6,19.9c-0.7,6.8-0.3,5.7-1.8,13.1c-0.2,1.2-0.4,2.2-0.6,3.4c-0.2,0.9-0.3,2.2-0.6,3.2
			c-0.8,3.7-1.3,9.4-2.3,12.5c-1.2,4-2.6,13.3-3.3,15.3l-0.9,2.8c-0.6,2.3-1.1,3.2-1.6,5.8C415.1,135.4,413.9,137.1,413.8,139.1"/>
	</defs>
	<use xlink:href="#SVGID_19_"  style="overflow:visible;fill-rule:evenodd;clip-rule:evenodd;fill:#67B145;"/>
	<clipPath id="SVGID_20_">
		<use xlink:href="#SVGID_19_"  style="overflow:visible;"/>
	</clipPath>
	<rect x="370.3" y="112.3" class="st10" width="140" height="69.1"/>
</g>
<path class="st8" d="M395.9,16.3c-0.8-0.4-1.7-1.2-2.4-1.4c-0.2,0.6,3,9.8,3.6,11.5c0.4,1.2,0.6,1.7,0.9,3.1
	c0.2,1.2,2.1,7.1,2.6,8.7c0.9,2.8,0.8,3.1,1.5,6.2c0.3,1.2,0.6,1.8,1,2.8c1,2.9,1.6,6.2,2.2,9.2c0.3,1.6,1.5,4.8,1.7,5.8
	c0.2,1,0.4,2.2,0.8,3.2c1.1,3.2,0.8,4.3,1.3,6.5l2.2,9.3c0.5,2.2,0.7,4.2,1.1,6.5c0.5,2.8,2.3,10.7,2.6,12.7
	c0.3,2.3,0.8,4.2,0.9,6.8c0,0.8,0.9,6,1.1,6.5c1-1.5,0.5-1.4,0.7-3.5c1.5-12,1.9-29.5,0.5-41.1c-0.3-2.5-0.3-4.8-0.7-7.3
	c-0.6-4.4-1.8-10-2.1-13.7c-0.3-3.5-2.3-9.1-3.3-12.5c-0.8-2.7-2.1-3.8-2.8-5.1c-0.6-1.1-0.6-1.8-1.3-2.6c-4.8-5.1-1.9-3.4-9.5-10.1
	C397,16.7,397.6,17.1,395.9,16.3"/>
<path class="st8" d="M347.2,0.3c-0.8,0-2.1-0.5-2.8-0.3c0.1,0.7,6.6,7.8,7.8,9.2c0.8,0.9,1.3,1.3,2,2.5c0.7,1,4.8,5.7,5.9,7
	c1.9,2.2,1.9,2.6,3.8,5.1c0.7,1,1.3,1.4,2,2.2c2.1,2.3,3.9,5,5.6,7.6c0.9,1.4,3.3,3.8,3.9,4.7c0.6,0.8,1.3,1.9,2,2.7
	c2.2,2.5,2.4,3.6,3.8,5.5l5.7,7.7c1.3,1.8,2.3,3.6,3.6,5.5c1.6,2.3,6.4,8.9,7.4,10.7c1.2,2,2.3,3.5,3.5,5.9c0.4,0.7,3.1,5.1,3.6,5.6
	c0.3-1.7-0.1-1.5-0.7-3.5c-3.3-11.6-9.9-27.8-15.8-38c-1.3-2.2-2.2-4.3-3.5-6.5c-2.3-3.8-5.6-8.5-7.3-11.7c-1.7-3.1-5.7-7.4-8-10.1
	c-1.8-2.1-3.4-2.6-4.6-3.6c-1-0.8-1.3-1.5-2.2-1.9c-6.4-2.8-3.1-2.4-12.8-5.5C348.5,0.3,349.1,0.4,347.2,0.3"/>
</svg>
