<?xml version="1.0" encoding="utf-8"?>
<!-- Generator: Adobe Illustrator 19.2.1, SVG Export Plug-In . SVG Version: 6.00 Build 0)  -->
<svg version="1.1" id="Layer_3" xmlns="http://www.w3.org/2000/svg" xmlns:xlink="http://www.w3.org/1999/xlink" x="0px" y="0px"
	 viewBox="0 0 324 311.8" style="enable-background:new 0 0 324 311.8;" xml:space="preserve">
<style type="text/css">
	.st0{fill:#ffffff;}
</style>
<g>
	<g>
		<path class="st0" d="M310.5,311.8H13.5c-7.5,0-13.5-6-13.5-13.5v-105c0-7.5,6-13.5,13.5-13.5h297.1c7.5,0,13.5,6,13.5,13.5v105
			C324,305.8,318,311.8,310.5,311.8L310.5,311.8z M27,284.8h270.1v-78.1H27V284.8L27,284.8z"/>
	</g>
	<g>
		<g>
			<path class="st0" d="M276.9,159.3c-3.7,0-7.4-1.5-10.1-4.5c-5-5.6-4.5-14.1,1.1-19c16.9-15.1,26.2-35,26.2-56.1
				c0-21.1-9.3-41-26.2-56.1c-5.6-5-6.1-13.5-1.1-19c5-5.6,13.5-6,19-1.1c22.7,20.3,35.3,47.3,35.3,76.2c0,28.9-12.5,56-35.3,76.2
				C283.3,158.1,280.1,159.3,276.9,159.3L276.9,159.3z"/>
		</g>
		<g>
			<path class="st0" d="M246.4,133c-3.7,0-7.4-1.5-10.1-4.5c-5-5.6-4.5-14.1,1.1-19c9-8.1,14-18.7,14-29.9s-5-21.8-14-29.9
				c-5.6-5-6.1-13.5-1.1-19c5-5.6,13.5-6,19-1.1c14.9,13.3,23.1,31,23.1,50c0,19-8.2,36.7-23.1,50C252.8,131.9,249.6,133,246.4,133
				L246.4,133z"/>
		</g>
		<g>
			<path class="st0" d="M145.6,159.3c-3.2,0-6.4-1.1-9-3.4c-22.7-20.3-35.3-47.3-35.3-76.2c0-28.9,12.5-56,35.3-76.2
				c5.5-4.9,14-4.5,19,1.1c5,5.6,4.5,14.1-1.1,19c-16.9,15.1-26.2,35-26.2,56.1c0,21.1,9.3,41,26.2,56.1c5.6,5,6.1,13.5,1.1,19
				C153,157.7,149.4,159.3,145.6,159.3L145.6,159.3z"/>
		</g>
		<g>
			<path class="st0" d="M176.2,133c-3.2,0-6.4-1.1-9-3.4c-14.9-13.3-23.1-31-23.1-50c0-19,8.2-36.7,23.1-50c5.5-4.9,14.1-4.5,19,1.1
				c5,5.6,4.5,14.1-1.1,19c-9.1,8.1-14,18.7-14,29.9s5,21.8,14,29.9c5.6,5,6.1,13.5,1.1,19C183.6,131.5,179.9,133,176.2,133
				L176.2,133z"/>
		</g>
	</g>
	<path class="st0" d="M63.3,229.9c-8.8,0-15.9,7.1-15.9,15.9s7.1,15.9,15.9,15.9c8.8,0,15.9-7.1,15.9-15.9S72.1,229.9,63.3,229.9
		L63.3,229.9z"/>
	<path class="st0" d="M115,229.9c-8.8,0-15.9,7.1-15.9,15.9s7.1,15.9,15.9,15.9c8.8,0,15.9-7.1,15.9-15.9S123.8,229.9,115,229.9
		L115,229.9z"/>
	<path class="st0" d="M166.7,229.9c-8.8,0-15.9,7.1-15.9,15.9s7.1,15.9,15.9,15.9c8.8,0,15.9-7.1,15.9-15.9S175.5,229.9,166.7,229.9
		L166.7,229.9z"/>
	<g>
		<path class="st0" d="M211.3,202.7c-7.5,0-13.5-6-13.5-13.5V85.8c0-7.5,6-13.5,13.5-13.5c7.5,0,13.5,6,13.5,13.5v103.4
			C224.8,196.7,218.7,202.7,211.3,202.7L211.3,202.7z"/>
	</g>
</g>
</svg>
