<?xml version="1.0" encoding="utf-8"?>
<!-- Generator: Adobe Illustrator 19.2.1, SVG Export Plug-In . SVG Version: 6.00 Build 0)  -->
<svg version="1.1" id="Layer_3" xmlns="http://www.w3.org/2000/svg" xmlns:xlink="http://www.w3.org/1999/xlink" x="0px" y="0px"
	 viewBox="0 0 260.4 322.3" style="enable-background:new 0 0 260.4 322.3;" xml:space="preserve">
<style type="text/css">
	.st0{fill:#425519;}
</style>
<g>
	<g>
		<path class="st0" d="M226.2,228.3c-2,0-4.1-0.4-6.1-1.4c-10.1-4.8-20.9-8.8-32.3-11.9l7.5-27.5c8.2,2.2,16.3,4.9,24,8
			c6.4-15.7,9.7-32.9,9.7-50.4c0-64.3-44.3-116.5-98.8-116.5S31.4,80.8,31.4,145c0,17.6,3.3,34.7,9.7,50.4c7.7-3,15.7-5.7,24-7.9
			l7.5,27.5c-11.4,3.1-22.3,7.1-32.3,11.9c-6.9,3.2-15.1,0.5-18.7-6.1C9.4,198,2.9,171.8,2.9,145C2.9,65.1,60,0,130.2,0
			s127.3,65.1,127.3,145c0,26.8-6.5,53-18.7,75.7C236.2,225.5,231.3,228.3,226.2,228.3L226.2,228.3z"/>
	</g>
	<g>
		<path class="st0" d="M177.8,224.7c-2.5,2.4-4,3.6-5.6,4.9l-1.3,1.1c-1.7,1.3-3.4,2.4-5.1,3.5c0,0-1.2,0.8-1.2,0.8
			c-1.6,1-3.4,1.9-5.2,2.8c-0.2,0.1-1.6,0.8-1.7,0.9c-1.3,0.7-3.1,1.3-4.9,2l-1.4,0.6c-1.3,0.5-2.6,0.8-3.9,1.1l-1.6,0.4
			c-0.2,0.1-1.3,0.4-1.5,0.4c-1.5,0.3-3,0.6-4.6,0.8l-2.4,0.4c-1.9,0.2-3.8,0.3-5.7,0.3c-0.1,0-1.3,0.1-1.4,0.1l0,0
			c-2.4,0-4.8-0.1-7.2-0.4c-37.7-4.2-66.1-39.6-77.9-97.3c-1.1-5.6-1.8-11.1-2.1-17.7c-0.1-2,0.6-3.9,1.9-5.3
			c1.4-1.4,3.2-2.2,5.2-2.2h39.1L95.6,76c0.5-3.5,3.5-6.1,7.1-6.1c3.5,0,6.6,2.6,7.1,6.1l6.4,45.8h10l2.2-21.5
			c0.4-3.6,3.4-6.4,7.1-6.4l0,0c3.7,0,6.7,2.8,7.1,6.4l2.2,21.5h65.8c2,0,3.8,0.8,5.2,2.2c1.3,1.4,2,3.3,1.9,5.3
			c-0.4,6.4-1.1,12.1-2.1,17.6c-6.4,31.2-17.4,55.7-32.6,72.7c-0.1,0.1-0.1,0.1-0.2,0.2c-1.1,1.2-2.3,2.4-3.4,3.5L177.8,224.7z
			 M142.8,228.9c2-0.5,2.9-0.8,3.9-1.1c2.6-1,3.9-1.5,5.2-2.1c2.5-1.3,3.9-2,5.2-2.8c2.4-1.6,3.8-2.5,5.1-3.5c2.4-1.9,3.7-3,5-4.2
			l1.5-1.5c1.3-1.3,2.3-2.3,3.3-3.4l0,0c0,0,0.1-0.1,0.1-0.1c13.3-14.9,23.4-37.7,29.3-66c0.5-2.6,0.9-5.3,1.3-8.1h-64.4
			c-1,0-2-0.2-2.8-0.6c-0.9,0.4-1.8,0.6-2.8,0.6h-22.6c-3.6,0-6.6-2.6-7.1-6.2l-0.2-1.4l-0.2,1.4c-0.5,3.5-3.5,6.2-7.1,6.2H57.8
			c0.3,2.8,0.7,5.5,1.3,8.1c10.5,51.2,34.4,82.6,65.5,86c1.9,0.2,3.7,0.3,5.6,0.3c2.6-0.1,4.1-0.2,5.6-0.3l0,0 M137.8,229.9
			c1.2-0.2,2.3-0.3,3.5-0.6"/>
	</g>
	<g>
		<g>
			<path class="st0" d="M28.5,322.3H0c0-53.1,46-96.3,102.5-96.3v28.5C61.7,254.6,28.5,284.9,28.5,322.3L28.5,322.3z"/>
		</g>
		<g>
			<path class="st0" d="M260.4,322.3h-28.5c0-37.4-33.2-67.8-74-67.8v-28.5C214.4,226.1,260.4,269.2,260.4,322.3L260.4,322.3z"/>
		</g>
	</g>
	<g>
		<path class="st0" d="M100.2,146.7c-4.6,0-8.3,3.7-8.3,8.4c0,4.6,3.7,8.3,8.3,8.3c4.6,0,8.4-3.7,8.4-8.3
			C108.5,150.5,104.8,146.7,100.2,146.7L100.2,146.7z"/>
		<path class="st0" d="M160.3,146.7c-4.6,0-8.4,3.7-8.4,8.4c0,4.6,3.7,8.3,8.4,8.3c4.6,0,8.3-3.7,8.3-8.3
			C168.6,150.5,164.9,146.7,160.3,146.7L160.3,146.7z"/>
	</g>
</g>
<g>
	<g>
		<path class="st0" d="M129.6,222c-9.3,0-18.1-3.6-24.7-10.2c-6.6-6.6-10.2-15.4-10.2-24.7c0-1.3,1.1-2.4,2.4-2.4l0,0
			c1.3,0,2.4,1.1,2.4,2.4c0,8.1,3.2,15.6,8.8,21.3c5.7,5.7,13.3,8.8,21.3,8.8c16.6,0,30.2-13.5,30.2-30.2c0-1.3,1.1-2.4,2.4-2.4
			c1.3,0,2.4,1.1,2.4,2.4C164.6,206.3,148.9,222,129.6,222L129.6,222z"/>
	</g>
</g>
</svg>
