<?xml version="1.0" encoding="utf-8"?>
<!-- Generator: Adobe Illustrator 19.2.1, SVG Export Plug-In . SVG Version: 6.00 Build 0)  -->
<svg version="1.1" id="Layer_3" xmlns="http://www.w3.org/2000/svg" xmlns:xlink="http://www.w3.org/1999/xlink" x="0px" y="0px"
	 viewBox="0 0 437.8 437.5" style="enable-background:new 0 0 437.8 437.5;" xml:space="preserve">
<style type="text/css">
	.st0{fill:#67B145;}
</style>
<g>
	<g>
		<path class="st0" d="M323.3,233.5c-63.2,0-114.6-51.4-114.6-114.5c0-63.2,51.4-114.5,114.6-114.5c63.1,0,114.5,51.4,114.5,114.5
			C437.8,182.1,386.4,233.5,323.3,233.5L323.3,233.5z M323.3,24.1c-52.3,0-94.9,42.6-94.9,94.9s42.6,94.9,94.9,94.9
			c52.3,0,94.9-42.6,94.9-94.9S375.6,24.1,323.3,24.1L323.3,24.1z"/>
	</g>
	<g>
		<path class="st0" d="M323.3,128.8c-5.4,0-9.8-4.4-9.8-9.8V48.1c0-5.4,4.4-9.8,9.8-9.8s9.8,4.4,9.8,9.8V119
			C333.1,124.4,328.7,128.8,323.3,128.8L323.3,128.8z"/>
	</g>
	<g>
		<path class="st0" d="M323.3,30.4c-5.4,0-9.8-4.4-9.8-9.8v-6.4c0-5.4,4.4-9.8,9.8-9.8s9.8,4.4,9.8,9.8v6.4
			C333.1,26,328.7,30.4,323.3,30.4L323.3,30.4z"/>
	</g>
	<g>
		<path class="st0" d="M323.3,233.5c-5.4,0-9.8-4.4-9.8-9.8v-6.4c0-5.4,4.4-9.8,9.8-9.8s9.8,4.4,9.8,9.8v6.4
			C333.1,229.1,328.7,233.5,323.3,233.5L323.3,233.5z"/>
	</g>
	<g>
		<path class="st0" d="M428,128.8h-6.4c-5.4,0-9.8-4.4-9.8-9.8c0-5.4,4.4-9.8,9.8-9.8h6.4c5.4,0,9.8,4.4,9.8,9.8
			C437.8,124.4,433.4,128.8,428,128.8L428,128.8z"/>
	</g>
	<g>
		<path class="st0" d="M224.9,128.8h-6.4c-5.4,0-9.8-4.4-9.8-9.8c0-5.4,4.4-9.8,9.8-9.8h6.4c5.4,0,9.8,4.4,9.8,9.8
			C234.7,124.4,230.3,128.8,224.9,128.8L224.9,128.8z"/>
	</g>
	<g>
		<g>
			<g>
				<path class="st0" d="M367.9,46.5c-0.8,0-1.7-0.2-2.4-0.7c-2.3-1.4-3.2-4.4-1.8-6.7l2.9-5c1.4-2.4,4.4-3.2,6.7-1.8
					c2.3,1.4,3.2,4.4,1.8,6.7l-2.9,5C371.3,45.7,369.6,46.5,367.9,46.5L367.9,46.5z"/>
			</g>
			<g>
				<path class="st0" d="M275.7,206.2c-0.8,0-1.7-0.2-2.4-0.7c-2.3-1.3-3.2-4.3-1.8-6.7l2.9-5c1.4-2.4,4.3-3.2,6.7-1.8
					c2.3,1.3,3.2,4.3,1.8,6.7l-2.9,5C279.1,205.4,277.4,206.2,275.7,206.2L275.7,206.2z"/>
			</g>
			<g>
				<path class="st0" d="M405.6,171.4c-0.8,0-1.7-0.2-2.4-0.7l-5-2.9c-2.3-1.3-3.2-4.3-1.8-6.7c1.4-2.4,4.4-3.2,6.7-1.8l5,2.9
					c2.3,1.3,3.2,4.3,1.8,6.7C409,170.5,407.3,171.4,405.6,171.4L405.6,171.4z"/>
			</g>
			<g>
				<path class="st0" d="M245.9,79.2c-0.8,0-1.7-0.2-2.4-0.6l-5-2.9c-2.4-1.3-3.2-4.3-1.8-6.7c1.3-2.4,4.4-3.2,6.7-1.8l5,2.9
					c2.4,1.3,3.2,4.3,1.8,6.7C249.3,78.3,247.6,79.2,245.9,79.2L245.9,79.2z"/>
			</g>
		</g>
		<g>
			<g>
				<path class="st0" d="M278.6,46.5c-1.7,0-3.3-0.9-4.3-2.5l-2.9-5c-1.4-2.4-0.5-5.4,1.8-6.7c2.3-1.3,5.3-0.6,6.7,1.8l2.9,5
					c1.4,2.4,0.5,5.4-1.8,6.7C280.3,46.3,279.4,46.5,278.6,46.5L278.6,46.5z"/>
			</g>
			<g>
				<path class="st0" d="M370.8,206.2c-1.7,0-3.3-0.9-4.2-2.4l-2.9-5c-1.4-2.3-0.6-5.3,1.8-6.7c2.3-1.4,5.3-0.6,6.7,1.8l2.9,5
					c1.4,2.3,0.6,5.3-1.8,6.7C372.5,206,371.7,206.2,370.8,206.2L370.8,206.2z"/>
			</g>
			<g>
				<path class="st0" d="M240.9,171.4c-1.7,0-3.4-0.9-4.3-2.5c-1.3-2.4-0.5-5.4,1.8-6.7l5-2.9c2.3-1.3,5.3-0.5,6.7,1.8
					c1.3,2.4,0.5,5.4-1.8,6.7l-5,2.9C242.6,171.2,241.7,171.4,240.9,171.4L240.9,171.4z"/>
			</g>
			<g>
				<path class="st0" d="M400.6,79.2c-1.7,0-3.3-0.9-4.2-2.5c-1.4-2.3-0.6-5.3,1.8-6.7l5-2.9c2.3-1.4,5.4-0.5,6.7,1.8
					c1.4,2.3,0.6,5.3-1.8,6.7l-5,2.9C402.3,79,401.5,79.2,400.6,79.2L400.6,79.2z"/>
			</g>
		</g>
	</g>
	<g>
		<path class="st0" d="M293.6,158.4c-2.5,0-5-1-6.9-2.9c-3.8-3.8-3.8-10.1,0-13.9l28.5-28.5c3.8-3.8,10-3.8,13.9,0
			c3.8,3.8,3.8,10.1,0,13.9l-28.5,28.5C298.6,157.5,296.1,158.4,293.6,158.4L293.6,158.4z"/>
	</g>
</g>
<g>
	<g>
		<path class="st0" d="M291,437.5L291,437.5c-15,0-29.1-5.8-39.8-16.5L111.4,281.2c-30.4,4.9-61.5-5.1-83.3-26.9
			c-26.5-26.5-35.2-66.5-22-101.7c1.7-4.7,5.7-8.1,10.6-9.2c4.9-1.1,9.9,0.4,13.4,3.9l39.4,39.4l21.4-5.7l5.7-21.4l-39.4-39.4
			c-3.5-3.5-5-8.6-3.9-13.4c1.1-4.9,4.5-8.8,9.2-10.6c10.8-4.1,22.2-6.1,33.8-6.1c25.7,0,49.8,10,67.9,28.1
			c21.8,21.8,31.7,53,26.9,83.3l139.8,139.8c10.6,10.6,16.5,24.7,16.5,39.8s-5.8,29.1-16.5,39.8C320.1,431.6,306,437.5,291,437.5
			L291,437.5z M116.2,250.7c3.8,0,7.6,1.5,10.3,4.3l145.3,145.4c10.2,10.2,28,10.2,38.2,0c5.1-5.1,7.9-11.9,7.9-19.1
			c0-7.2-2.8-14-7.9-19.1L164.7,216.8c-3.6-3.6-5.1-8.9-3.8-13.9c5.9-23.2-0.7-47-17.5-63.8c-12.3-12.3-28.5-19.2-45.8-19.6
			l25.5,25.6c3.7,3.7,5.1,9.1,3.8,14.1l-10.1,37.6c-1.3,5-5.3,9-10.3,10.3l-37.6,10.1c-5.1,1.4-10.4-0.1-14.1-3.8l-25.5-25.5
			c0.4,16.9,7.2,33.5,19.5,45.8c16.5,16.5,41.1,23.2,63.8,17.5C113.8,250.8,115,250.7,116.2,250.7L116.2,250.7z"/>
	</g>
	<path class="st0" d="M288.8,365.9c-6.7,0-12.2,5.4-12.2,12.2c0,6.7,5.4,12.2,12.2,12.2c6.7,0,12.2-5.4,12.2-12.2
		C301,371.3,295.5,365.9,288.8,365.9L288.8,365.9z"/>
</g>
<g>
	<path class="st0" d="M108,60.7h25.4c2.5,0,4.5,0.5,5.8,1.6c1.3,1,2,2.4,2,4.2c0,1.6-0.5,2.9-1.6,4c-1,1.1-2.6,1.6-4.8,1.6H99
		c-2.4,0-4.3-0.7-5.7-2c-1.4-1.4-2.1-2.9-2.1-4.7c0-1.2,0.4-2.7,1.3-4.6c0.9-1.9,1.8-3.4,2.9-4.5c4.3-4.5,8.2-8.3,11.7-11.5
		c3.5-3.2,5.9-5.3,7.4-6.3c2.6-1.9,4.9-3.8,6.6-5.7c1.8-1.9,3.1-3.8,4-5.8c0.9-2,1.4-3.9,1.4-5.9c0-2.1-0.5-3.9-1.5-5.6
		c-1-1.6-2.3-2.9-4-3.8c-1.7-0.9-3.6-1.4-5.6-1.4c-4.2,0-7.6,1.9-10,5.6c-0.3,0.5-0.9,1.8-1.6,4c-0.7,2.2-1.6,3.8-2.6,5
		c-1,1.2-2.4,1.8-4.2,1.8c-1.6,0-3-0.5-4-1.6c-1.1-1.1-1.6-2.5-1.6-4.4c0-2.2,0.5-4.6,1.5-7c1-2.4,2.5-4.6,4.5-6.6
		c2-2,4.5-3.6,7.6-4.8c3.1-1.2,6.7-1.8,10.8-1.8c5,0,9.2,0.8,12.7,2.3c2.3,1,4.3,2.5,6,4.3c1.7,1.8,3,3.9,4,6.3
		c0.9,2.4,1.4,4.8,1.4,7.4c0,4-1,7.7-3,11c-2,3.3-4,5.9-6.1,7.7c-2.1,1.9-5.5,4.8-10.4,8.8c-4.9,4-8.2,7.1-10,9.3
		C109.6,58.4,108.8,59.5,108,60.7z"/>
	<path class="st0" d="M174.8,66v-9h-24.4c-3.1,0-5.4-0.7-6.9-2.1c-1.5-1.4-2.3-3.3-2.3-5.7c0-0.6,0.1-1.2,0.4-1.9
		c0.2-0.6,0.6-1.3,1-2c0.5-0.7,0.9-1.4,1.4-2c0.5-0.6,1.1-1.4,1.8-2.4l25.8-34.5c1.7-2.3,3.1-3.9,4.2-4.9c1.1-1,2.4-1.5,3.9-1.5
		c4.9,0,7.4,2.8,7.4,8.5v37.6h2.1c2.5,0,4.5,0.3,6,1c1.5,0.7,2.3,2.2,2.3,4.5c0,1.9-0.6,3.2-1.9,4.1c-1.2,0.9-3.1,1.3-5.5,1.3h-3v9
		c0,2.5-0.6,4.4-1.6,5.6c-1.1,1.2-2.6,1.8-4.4,1.8c-1.8,0-3.3-0.6-4.4-1.9C175.4,70.3,174.8,68.4,174.8,66z M153.9,46.1h20.9V17.8
		L153.9,46.1z"/>
</g>
</svg>
